<svg xmlns="http://www.w3.org/2000/svg" width="23.255" height="25" viewBox="0 0 23.255 25">
  <g id="Group_353" data-name="Group 353" transform="translate(-17.866)">
    <rect id="Rectangle_426" data-name="Rectangle 426" width="4.025" height="3.578" transform="translate(20.996 8.006)" fill="#61b2d7"/>
    <rect id="Rectangle_427" data-name="Rectangle 427" width="4.026" height="3.578" transform="translate(27.481 8.006)" fill="#61b2d7"/>
    <rect id="Rectangle_428" data-name="Rectangle 428" width="4.024" height="3.578" transform="translate(33.966 8.006)" fill="#61b2d7"/>
    <rect id="Rectangle_429" data-name="Rectangle 429" width="4.025" height="3.578" transform="translate(20.996 13.372)" fill="#61b2d7"/>
    <rect id="Rectangle_430" data-name="Rectangle 430" width="4.026" height="3.578" transform="translate(27.481 13.372)" fill="#61b2d7"/>
    <rect id="Rectangle_431" data-name="Rectangle 431" width="4.024" height="3.578" transform="translate(33.966 13.372)" fill="#61b2d7"/>
    <rect id="Rectangle_432" data-name="Rectangle 432" width="4.025" height="3.578" transform="translate(20.996 18.739)" fill="#61b2d7"/>
    <rect id="Rectangle_433" data-name="Rectangle 433" width="4.026" height="3.578" transform="translate(27.481 18.739)" fill="#61b2d7"/>
    <rect id="Rectangle_434" data-name="Rectangle 434" width="4.024" height="3.578" transform="translate(33.966 18.739)" fill="#61b2d7"/>
    <path id="Path_517" data-name="Path 517" d="M102.275,4.36a.839.839,0,0,0,.839-.838V.838a.839.839,0,0,0-1.677,0V3.522A.839.839,0,0,0,102.275,4.36Z" transform="translate(-79.489)" fill="#61b2d7"/>
    <path id="Path_518" data-name="Path 518" d="M239.662,4.36a.839.839,0,0,0,.839-.838V.838a.839.839,0,0,0-1.677,0V3.522A.838.838,0,0,0,239.662,4.36Z" transform="translate(-210.169)" fill="#61b2d7"/>
    <path id="Path_519" data-name="Path 519" d="M37.711,44.9v1.33a1.509,1.509,0,0,1-3.019,0V44.9H31v1.33a1.509,1.509,0,0,1-3.019,0V44.9H24.295v1.33a1.509,1.509,0,0,1-3.019,0V44.9h-3.41V67.707H41.121V44.9Zm2.069,10.286v11.18H19.208V48.924H39.779v6.261Z" transform="translate(0 -42.707)" fill="#61b2d7"/>
    <path id="Path_520" data-name="Path 520" d="M377.041,4.36a.838.838,0,0,0,.839-.838V.838a.839.839,0,0,0-1.677,0V3.522A.838.838,0,0,0,377.041,4.36Z" transform="translate(-340.84)" fill="#61b2d7"/>
  </g>
</svg>
