<svg xmlns="http://www.w3.org/2000/svg" width="60.292" height="103.05" viewBox="0 0 60.292 103.05">
  <g id="Group_275" data-name="Group 275" transform="translate(-1232.51 -214.135)" opacity="0.797">
    <g id="Group_238" data-name="Group 238" transform="translate(1232.51 214.136)">
      <path id="Path_338" data-name="Path 338" d="M1264.994,350.061a3.593,3.593,0,1,0,3.609-3.586,3.6,3.6,0,0,0-3.609,3.586" transform="translate(-1251.211 -290.325)" fill="#61b2d7"/>
      <path id="Path_339" data-name="Path 339" d="M1321.355,350.237a3.592,3.592,0,1,0,3.6-3.586,3.594,3.594,0,0,0-3.6,3.586" transform="translate(-1283.659 -290.426)" fill="#61b2d7"/>
      <path id="Path_340" data-name="Path 340" d="M1295.08,382.745h0a7.351,7.351,0,0,1-9.208-.03,2.155,2.155,0,1,0-2.825,3.254,11.543,11.543,0,0,0,14.831.045,2.152,2.152,0,1,0-2.8-3.269" transform="translate(-1261.181 -310.887)" fill="#61b2d7"/>
      <path id="Path_341" data-name="Path 341" d="M1269.772,263.7a60.388,60.388,0,0,0-16.713,9.181c-12.887,9.568-20.511,22.527-20.549,34.555a28.547,28.547,0,0,0,.192,3.354c1.185,10,7.779,18.034,18.561,22.621a2.825,2.825,0,0,0,3.7-1.488,2.828,2.828,0,0,0-1.495-3.7c-8.967-3.817-14.217-10.075-15.165-18.1-1.3-10.919,5.643-23.455,18.112-32.719a55.128,55.128,0,0,1,15.2-8.377,2.818,2.818,0,1,0-1.842-5.327" transform="translate(-1232.51 -242.579)" fill="#61b2d7"/>
      <path id="Path_342" data-name="Path 342" d="M1283.334,214.166c-9.828,1.459-15.152,9.55-15.174,16.431-.026,9.227,5.988,14.2,15.717,19.235,14.919,7.72,23.592,19.113,23.814,31.262,0,.181,0,.359,0,.538-.036,11.577-7.845,22.584-21.489,30.278a2.788,2.788,0,0,0-1.336,1.7,3.141,3.141,0,0,0-.106.754,2.862,2.862,0,0,0,.365,1.388,2.819,2.819,0,0,0,3.84,1.067c15.726-8.859,24.6-21.918,24.353-35.828-.249-14.282-10.036-27.458-26.852-36.166-9.493-4.916-12.69-8.5-12.673-14.213a11.614,11.614,0,0,1,10.365-10.872,2.818,2.818,0,1,0-.828-5.574" transform="translate(-1253.034 -214.136)" fill="#61b2d7"/>
    </g>
  </g>
</svg>
