<svg xmlns="http://www.w3.org/2000/svg" width="35.006" height="56.01" viewBox="0 0 35.006 56.01">
  <path id="mobile-alt-solid" d="M29.755,0H5.251A5.252,5.252,0,0,0,0,5.251V50.759A5.252,5.252,0,0,0,5.251,56.01h24.5a5.252,5.252,0,0,0,5.251-5.251V5.251A5.252,5.252,0,0,0,29.755,0ZM17.5,52.51a3.5,3.5,0,1,1,3.5-3.5A3.5,3.5,0,0,1,17.5,52.51ZM29.755,40.695a1.317,1.317,0,0,1-1.313,1.313H6.564a1.317,1.317,0,0,1-1.313-1.313V6.564A1.317,1.317,0,0,1,6.564,5.251H28.443a1.317,1.317,0,0,1,1.313,1.313Z" fill="#61b2d7"/>
</svg>
